303644 303818 340
426029 426109 281
64596 64629 255
422418 422448 219
456678 456734 219
161149 161169 140
402403 402650 250
355794 356031 242
476337 476493 276
193682 193798 285
136842 137033 313
211020 211066 355
383745 383957 299
317072 317088 141
361771 362022 273
243208 243403 319
223355 223470 293
398814 399078 330
292200 292221 190
200980 201211 267
363013 363072 211
59323 59366 242
220571 220697 218
469018 469317 294
201289 201301 161
100116 100404 341
348954 349016 242
42206 42380 288
311537 311613 247
349449 349621 304
253901 254026 288
483928 483938 227
79852 80146 307
39762 40022 306
343554 343808 304
212958 213064 311
176124 176350 303
325923 326083 216
345541 345709 273
487321 487581 227
162516 162737 339
241702 241721 213
206944 207133 280
209859 210032 280
22304 22322 163
400068 400085 193
140720 140985 251
455334 455559 263
480102 480208 263
166601 166836 303
341465 341466 92
461812 461860 307
322073 322087 216
216155 216300 324
297190 297423 327
285719 285954 252
139188 139482 282
1125 1153 151
303495 303620 265
322518 322684 309
333600 333722 260
394198 394369 237
90441 90610 240
298132 298369 265
331547 331722 260
238628 238801 275
17524 17550 217
278795 278805 177
477880 478006 214
7967 7994 146
419728 419800 250
39480 39564 244
434240 434359 250
455067 455291 263
356354 356458 304
44578 44839 270
236580 236753 306
266360 266488 208
47963 47968 190
116309 116588 305
61015 61304 255
8776 8926 185
487758 487880 338
36170 36402 249
47412 47505 221
199234 199349 267
262639 262725 164
144317 144395 220
134662 134841 300
87473 87483 240
160455 160674 290
241305 241494 275
288165 288401 327
241612 241746 213
138732 138878 282
205106 205270 236
181036 181108 241
139752 139917 251
495646 495745 320
488262 488462 258
416372 416376 162
430717 430720 113
78005 78169 276
194215 194235 192
426842 426974 237
358969 359138 229
456579 456737 245
445099 445199 263
228877 229123 262
377643 377788 361
200727 200906 298
13225 13292 276
216728 216943 342
184746 184802 241
455850 456012 338
365992 366035 224
27458 27526 215
140657 140936 313
213085 213100 249
81663 81756 214
433552 433752 343
343206 343360 335
157533 157640 339
133129 133260 225
37680 37691 169
489360 489650 245
261013 261072 195
408385 408406 237
481450 481575 351
72608 72754 263
458247 458535 307
115607 115803 323
272352 272393 270
316856 316902 322
241484 241576 244
11825 11830 175
129862 130144 344
348222 348495 335
234915 235162 306
213835 214091 373
128099 128256 331
92673 92833 302
257663 257680 257
338589 338840 291
124852 125100 256
457453 457642 263
21988 22108 269
1323 1534 172
488034 488100 245
418063 418350 281
350530 350381 242
815921 815947 269
490945 490968 245
924546 924445 308
51572 51456 216
104458 104690 310
450271 450001 369
785730 785514 375
715503 715581 305
45643 45932 239
355405 355314 242
547199 547261 240
278604 278479 221
207081 207156 236
191595 191629 223
231661 231626 231
806667 806634 207
528811 528626 302
587372 587083 297
101738 101647 235
693076 693119 186
724287 724463 243
376433 376387 149
939380 939319 339
201916 202069 236
834375 834357 282
334389 334594 291
429558 429353 250
599817 599519 253
508006 507774 364
663939 663975 217
870329 870575 326
310200 310126 234
104734 104829 204
395553 395623 268
140733 140539 313
917758 917617 233
513167 513180 152
209735 209603 236
989005 988706 308
403742 403630 312
910794 910934 295
101816 101881 235
582464 582183 328
81444 81428 245
835797 835660 313
967611 967315 228
479613 479527 276
393384 393371 299
823971 824039 238
250115 250206 301
470542 470815 307
481038 480929 245
5147 5425 192
696419 696597 230
806161 806239 225
52253 52311 203
811793 811518 238
120663 120591 243
841089 841013 313
188491 188517 285
638317 638451 248
698224 698262 199
775538 775447 300
918571 918601 233
187795 187605 254
291360 291460 296
431286 431053 294
96293 96007 253
955424 955518 308
495073 494887 289
679605 679576 261
826133 826429 313
364677 364695 242
237207 237402 306
841976 842181 251
349632 349414 304
819844 820090 450
229384 229318 200
3165 3421 199
501888 501677 289
998834 998717 228
763672 763602 225
170268 170509 228
834029 833808 238
868293 868448 339
671490 671263 261
964773 964688 228
531375 531331 196
573735 573549 359
609010 609151 359
637510 637244 354
65492 65257 224
926788 926541 370
414987 414993 175
976774 976796 259
632628 632905 279
299291 299012 327
224065 224089 231
683494 683479 336
539993 540234 227
413031 413033 206
641152 641059 261
289309 289366 252
341045 340866 229
921979 921710 277
919043 919015 233
376580 376480 286
252851 252661 226
716828 716764 305
754327 754363 225
574287 574219 222
742142 741848 305
767074 767371 318
425444 425551 356
125313 125321 150
273782 273937 358
346827 346730 304
153052 153075 171
897645 897579 264
220994 221269 293
881048 881065 220
659462 659438 217
513051 512845 333
583385 583569 266
940525 940629 277
686816 687017 398
872140 872197 326
895280 895184 233
604079 603986 266
174777 174847 303
450905 450715 338
121186 121253 274
601369 601582 310
43361 43630 226
377422 377584 242
414210 414084 281
762090 761950 362
752652 752872 305
305316 305346 146
783845 783683 331
190738 191018 254
964394 964453 215
684547 684472 279
422177 422317 250
883501 883764 282
873227 873214 251
37260 37095 262
763068 762818 269
520013 520138 302
