1 10 20
100 200 125
201 210 89
900 1000 174
97353 566356 470
841482 154894 525
268938 215460 443
571365 509054 470
947893 542969 525
36636 234807 443
900333 548764 525
254224 18085 443
757001 826327 468
635557 922792 525
207674 626434 509
133835 187463 383
577755 821964 509
508781 207291 449
863879 271716 525
65956 819776 509
801176 267056 509
303289 492117 449
717712 390768 509
654463 58881 509
933356 269422 525
774062 894139 525
150478 25424 375
868797 737821 525
390820 637739 509
186105 926121 525
728101 960033 525
795855 830858 468
607197 675478 509
769613 108636 509
750208 675629 504
214460 519849 470
207032 193297 373
544118 378421 470
138077 455589 449
48788 697985 509
797208 566212 509
572218 668955 509
564092 330629 470
97525 817091 509
557609 698739 509
959166 120173 525
900014 745433 525
383913 333696 441
939989 53178 525
840762 570491 525
937005 488847 525
962165 49426 525
368114 641727 509
358241 278522 441
910269 743599 525
822786 808992 450
472359 747699 509
106315 681838 509
939952 384908 525
317582 506436 449
750943 694400 504
966933 13275 525
533442 899562 525
379744 361644 423
709375 943196 525
581108 522135 452
906349 210408 525
94584 670143 509
674181 933121 525
204663 660908 509
210830 122218 383
762461 46717 509
632228 212706 509
472089 63600 449
533809 444614 470
905648 39837 525
441853 301656 449
330331 132149 443
973469 966139 458
820849 375745 509
490244 940613 525
696857 577030 509
934464 367711 525
474681 890645 525
421583 978891 525
405965 419278 449
964490 27125 525
396782 969829 525
285510 191278 443
203414 150714 383
923764 258465 525
52953 772404 509
506779 293246 449
88585 859164 525
537810 562717 452
689623 11956 509
775263 464513 509
812758 223327 509
824627 225724 509
20665 19197 274
107925 527503 470
939614 649913 525
557891 705401 509
953062 21610 525
895152 90514 525
153174 157922 383
306675 31475 443
60539 244957 443
363456 152073 443
619610 935 470
797645 640374 504
310299 239726 407
738106 26862 509
241654 525965 470
252988 843578 525
591967 957445 525
547227 15058 470
40378 47240 314
476474 802131 509
16202 507882 449
74485 994284 525
778547 908267 525
413625 312776 449
450529 607549 470
400005 280335 441
692604 367575 509
698132 421740 509
232892 273601 407
164928 993193 525
68717 86596 351
170406 279635 443
650757 685643 442
107905 747789 509
904155 448070 525
17822 884051 525
454990 685436 509
918649 553766 525
932238 326893 525
742880 467198 509
882467 146498 525
116172 632982 509
152378 318197 443
858760 326707 525
797591 10253 509
617819 782338 509
806515 511963 509
542830 814880 509
110386 759849 509
561345 485714 470
821388 771977 468
667982 184382 509
652388 647380 385
690728 950467 525
497048 706816 509
82105 976841 525
906066 552545 525
21264 106804 354
488395 902595 525
581642 920099 525
105461 281319 443
895131 793646 525
110363 680274 509
541615 573781 452
98522 196993 383
34325 673237 509
19957 369686 443
630716 263388 509
634195 290837 509
752737 866244 525
871053 94493 525
310762 368936 441
328657 182599 443
678698 183952 509
296945 772851 509
341727 457562 449
855981 506383 525
642347 229147 509
317843 117415 443
554460 839433 525
358717 527979 470
232732 610629 470
543218 646114 509
310493 581192 470
515414 138202 470
324498 281192 389
860221 319342 525
665404 341213 509
809871 239189 509
910252 900122 476
562871 925163 525
733335 500864 509
165581 929992 525
708350 499123 509
810233 929597 525
365232 841744 525
58522 648516 509
719441 627951 504
959930 733004 525
197317 326678 443
638750 669949 442
756224 983188 525
385711 916079 525
698399 462333 509
351630 869529 525
833920 560073 509
260812 285276 407
318421 6681 443
150528 575661 470
25570 440042 449
502596 91063 449
998985 279187 525
588838 661591 509
814815 310631 509
714282 951654 525
46277 664775 509
884582 629322 525
299928 986377 525
665096 411850 509
534255 237346 470
976041 925819 507
796137 913060 525
90017 611708 470
427166 181343 449
994836 708024 525
40195 288957 443
849501 621109 525
534397 358015 470
541385 71777 470
323006 908425 525
175324 200851 365
23703 745106 509
389788 398704 405
258665 658243 509
16905 964193 525
833719 486368 509
815450 717801 468
407006 394682 405
220503 340813 443
193344 496268 449
765332 375169 509
294030 672384 509
283278 252113 407
791730 827534 468
571015 336942 470
289356 33447 443
821669 61835 509
936064 875029 476
551814 678532 509
443580 80656 449
782341 541028 509
131378 591439 470
662994 701878 442
642178 981914 525
572587 676552 509
